Assignment06
…
summary(feeding_tidy$HAZ_post)

   Min. 1st Qu.  Median    Mean 3rd Qu.    Max. 
 -5.350  -3.820  -3.380  -3.404  -2.950  -0.810 

# get the most common occurrences of post-intervention HAZ
feeding_tidy|>
  count(HAZ_post)|>
  arrange(desc(n))

# A tibble: 176 × 2
   HAZ_post     n
      <dbl> <int>
 1    -3.07     6
 2    -3.45     5
 3    -3.82     4
 4    -3.76     4
 5    -3.72     4
 6    -3.38     4
 7    -3.28     4
 8    -2.72     4
 9    -4.11     3
10    -4.01     3
# ℹ 166 more rows
…
